test_cube.vcd
$date
	Fri Jul  8 13:16:21 2016
$end
$version
	Icarus Verilog
$end
$timescale
	1ps
$end
$scope module test $end
$scope module t0 $end
$var wire 4 ! aluop [3:0] $end
$var wire 1 " clk $end
$var wire 4 # dst [3:0] $end
$var wire 16 $ imemop [15:0] $end
$var wire 8 % in0 [7:0] $end
$var wire 8 & in1 [7:0] $end
$var wire 8 ' in2 [7:0] $end
$var wire 8 ( mem20 [7:0] $end
$var wire 8 ) mem21 [7:0] $end
$var wire 8 * mem22 [7:0] $end
$var wire 8 + mem23 [7:0] $end
$var wire 8 , mem24 [7:0] $end
$var wire 8 - mem25 [7:0] $end
$var wire 8 . mem26 [7:0] $end
$var wire 8 / mem27 [7:0] $end
$var wire 8 0 mem28 [7:0] $end
$var wire 8 1 mem29 [7:0] $end
$var wire 8 2 mem30 [7:0] $end
$var wire 1 3 memwe $end
$var wire 8 4 out0 [7:0] $end
$var wire 8 5 out1 [7:0] $end
$var wire 8 6 out2 [7:0] $end
$var wire 8 7 out3 [7:0] $end
$var wire 8 8 pc [7:0] $end
$var wire 8 9 pcin [7:0] $end
$var wire 1 : pcwe $end
$var wire 1 ; regwe $end
$var wire 1 < rst_n $end
$var wire 1 = sel1 $end
$var wire 1 > sel2 $end
$var wire 4 ? src0 [3:0] $end
$var wire 4 @ src1 [3:0] $end
$var wire 1 A zfin $end
$scope module s0 $end
$var wire 8 B in0 [7:0] $end
$var wire 8 C in1 [7:0] $end
$var wire 1 = sel $end
$var reg 8 D out [7:0] $end
$upscope $end
$scope module s1 $end
$var wire 8 E in0 [7:0] $end
$var wire 8 F in1 [7:0] $end
$var wire 1 > sel $end
$var reg 8 G out [7:0] $end
$upscope $end
$scope module r0 $end
$var wire 1 " clk $end
$var wire 8 H data [7:0] $end
$var wire 8 I data0 [7:0] $end
$var wire 8 J data1 [7:0] $end
$var wire 4 K dst [3:0] $end
$var wire 8 L regf0 [7:0] $end
$var wire 8 M regf1 [7:0] $end
$var wire 8 N regf10 [7:0] $end
$var wire 8 O regf3 [7:0] $end
$var wire 8 P regf5 [7:0] $end
$var wire 8 Q regf7 [7:0] $end
$var wire 8 R regf8 [7:0] $end
$var wire 8 S regf9 [7:0] $end
$var wire 1 < rst_n $end
$var wire 4 T src0 [3:0] $end
$var wire 4 U src1 [3:0] $end
$var wire 1 ; we $end
$upscope $end
$scope module a0 $end
$var wire 8 V in0 [7:0] $end
$var wire 8 W in1 [7:0] $end
$var wire 4 X op [3:0] $end
$var reg 8 Y out [7:0] $end
$var reg 1 Z zf $end
$upscope $end
$scope module m0 $end
$var wire 8 [ addr [7:0] $end
$var wire 1 " clk $end
$var wire 8 \ din [7:0] $end
$var wire 8 ] dout [7:0] $end
$var wire 8 ^ mem0 [7:0] $end
$var wire 8 _ mem1 [7:0] $end
$var wire 8 ` mem10 [7:0] $end
$var wire 8 a mem11 [7:0] $end
$var wire 8 b mem2 [7:0] $end
$var wire 8 c mem20 [7:0] $end
$var wire 8 d mem21 [7:0] $end
$var wire 8 e mem22 [7:0] $end
$var wire 8 f mem23 [7:0] $end
$var wire 8 g mem24 [7:0] $end
$var wire 8 h mem25 [7:0] $end
$var wire 8 i mem26 [7:0] $end
$var wire 8 j mem27 [7:0] $end
$var wire 8 k mem28 [7:0] $end
$var wire 8 l mem29 [7:0] $end
$var wire 8 m mem3 [7:0] $end
$var wire 8 n mem30 [7:0] $end
$var wire 8 o mem31 [7:0] $end
$var wire 8 p mem4 [7:0] $end
$var wire 8 q mem5 [7:0] $end
$var wire 8 r mem6 [7:0] $end
$var wire 8 s mem7 [7:0] $end
$var wire 8 t mem8 [7:0] $end
$var wire 8 u mem9 [7:0] $end
$var wire 8 v out [7:0] $end
$var wire 1 < rst_n $end
$var wire 1 3 we $end
$upscope $end
$scope module d0 $end
$var wire 16 w op [15:0] $end
$var wire 1 A zf $end
$var reg 4 x aluop [3:0] $end
$var reg 8 y data [7:0] $end
$var reg 4 z dst [3:0] $end
$var reg 1 { memwe $end
$var reg 8 | pcin [7:0] $end
$var reg 1 } pcwe $end
$var reg 1 ~ regwe $end
$var reg 1 !" sel1 $end
$var reg 1 "" sel2 $end
$var reg 4 #" src0 [3:0] $end
$var reg 4 $" src1 [3:0] $end
$upscope $end
$scope module p0 $end
$var wire 1 " clk $end
$var wire 8 %" pcin [7:0] $end
$var wire 1 < rst_n $end
$var wire 1 : we $end
$var reg 8 &" pcout [7:0] $end
$upscope $end
$scope module i0 $end
$var wire 8 '" pc [7:0] $end
$var reg 16 (" op [15:0] $end
$upscope $end
$upscope $end
$upscope $end
$enddefinitions $end
#0
$dumpvars
bx ("
bx '"
bx &"
bx %"
bx $"
bx #"
x""
x!"
x~
x}
bx |
x{
bx z
bx y
bx x
bx w
bx v
bz u
bz t
bz s
bz r
bz q
bz p
bz o
bz n
bz m
bz l
bz k
bz j
bz i
bz h
bz g
bz f
bz e
bz d
bz c
bz b
bz a
bz `
bz _
bz ^
bx ]
bx \
bx [
xZ
bx Y
bx X
bx W
bx V
bx U
bx T
bz S
bz R
bz Q
bz P
bz O
bz N
bz M
bz L
bx K
bx J
bx I
bx H
bx G
bx F
bx E
bx D
bx C
bx B
xA
bx @
bx ?
x>
x=
1<
x;
x:
bx 9
bx 8
bx 7
bx 6
bx 5
bx 4
x3
bz 2
bz 1
bz 0
bz /
bz .
bz -
bz ,
bz +
bz *
bz )
bz (
bx '
bx &
bx %
bx $
bx #
0"
bx !
$end
#1
1"
#2
0"
#3
1"
#4
0"
#5
b0 G
b0 7
b0 H
b0 Y
b0 5
b0 E
b0 \
b0 D
b0 4
b0 V
0Z
0A
0{
03
b0 y
b0 %
b0 B
1""
1>
1!"
1=
1~
1;
0}
0:
b0 |
b0 9
b0 %"
b0 #"
b0 &
b0 C
b0 I
b0 ?
b0 T
b0 $"
b0 6
b0 F
b0 ]
b0 v
b0 '
b0 J
b0 W
b0 [
b0 @
b0 U
b0 z
b0 #
b0 K
b1010 x
b1010 !
b1010 X
b1010000000000000 ("
b1010000000000000 $
b1010000000000000 w
b0 N
b1 S
b0 R
b0 Q
b0 P
b0 O
b0 M
b0 L
b0 o
b0 2
b0 n
b0 1
b0 l
b0 0
b0 k
b0 /
b0 j
b0 .
b0 i
b0 -
b0 h
b0 ,
b0 g
b0 +
b0 f
b0 *
b0 e
b0 )
b0 d
b0 (
b0 c
b0 a
b0 `
b0 u
b0 t
b0 s
b0 r
b0 q
b0 p
b0 m
b0 b
b0 _
b0 ^
b0 &"
b0 8
b0 '"
1"
0<
#6
0"
#7
1"
#8
0"
#9
1"
#10
0"
1<
#11
b10111 G
b10111 7
b10111 H
b10111 Y
b10111 5
b10111 E
b10111 \
b10111 D
b10111 4
b10111 V
b10111 y
b10111 %
b10111 B
b1 z
b1 #
b1 K
b1010000100010111 $
b1010000100010111 w
b1010000100010111 ("
b1 &"
b1 8
b1 '"
1"
#12
0"
#13
b111 G
b111 7
b111 H
b111 Y
b111 5
b111 E
b111 \
b111 D
b111 4
b111 V
b111 y
b111 %
b111 B
b10 z
b10 #
b10 K
b1010001000000111 $
b1010001000000111 w
b1010001000000111 ("
b10111 M
b10 &"
b10 8
b10 '"
1"
#14
0"
#15
b1111 G
b1111 7
b1111 H
b1111 Y
b1111 5
b1111 E
b1111 \
b1111 D
b1111 4
b1111 V
b1111 y
b1111 %
b1111 B
b11 z
b11 #
b11 K
b1010001100001111 $
b1010001100001111 w
b1010001100001111 ("
b11 &"
b11 8
b11 '"
1"
#16
0"
#17
b1011 G
b1011 7
b1011 H
b1011 Y
b1011 5
b1011 E
b1011 \
b1011 D
b1011 4
b1011 V
b1011 y
b1011 %
b1011 B
b100 z
b100 #
b100 K
b1010010000001011 $
b1010010000001011 w
b1010010000001011 ("
b1111 O
b100 &"
b100 8
b100 '"
1"
#18
0"
#19
b10000 G
b10000 7
b10000 H
b10000 Y
b10000 5
b10000 E
b10000 \
b10000 D
b10000 4
b10000 V
b10000 y
b10000 %
b10000 B
b101 z
b101 #
b101 K
b1010010100010000 $
b1010010100010000 w
b1010010100010000 ("
b101 &"
b101 8
b101 '"
1"
#20
0"
#21
b11011 G
b11011 7
b11011 H
b11011 Y
b11011 5
b11011 E
b11011 \
b11011 D
b11011 4
b11011 V
b11011 y
b11011 %
b11011 B
b110 z
b110 #
b110 K
b1010011000011011 $
b1010011000011011 w
b1010011000011011 ("
b10000 P
b110 &"
b110 8
b110 '"
1"
#22
0"
#23
b11110 G
b11110 7
b11110 H
b11110 Y
b11110 5
b11110 E
b11110 \
b11110 D
b11110 4
b11110 V
b11110 y
b11110 %
b11110 B
b111 z
b111 #
b111 K
b1010011100011110 $
b1010011100011110 w
b1010011100011110 ("
b111 &"
b111 8
b111 '"
1"
#24
0"
#25
b0 Y
b0 5
b0 E
b0 \
b0 G
b0 7
b0 H
b0 D
b0 4
b0 V
b0 y
b0 %
b0 B
0""
0>
0!"
0=
b1100 $"
b1100 @
b1100 U
b1011 z
b1011 #
b1011 K
b1000 x
b1000 !
b1000 X
b1000101111001110 ("
b1000101111001110 $
b1000101111001110 w
b11110 Q
b1000 &"
b1000 8
b1000 '"
1"
#26
0"
#27
b1101 $"
b10100 '
b10100 J
b10100 W
b10100 [
b1101 @
b1101 U
b1110 z
b1110 #
b1110 K
b1000111011011110 $
b1000111011011110 w
b1000111011011110 ("
b1001 &"
b1001 8
b1001 '"
1"
#28
0"
#29
b1001 $"
b1 '
b1 J
b1 W
b1 [
b1001 @
b1001 U
b1010 z
b1010 #
b1010 K
b1000101010011110 $
b1000101010011110 w
b1000101010011110 ("
b1010 &"
b1010 8
b1010 '"
1"
#30
0"
#31
b1 D
b1 4
b1 V
0Z
0A
b1 y
b1 %
b1 B
1!"
1=
0~
0;
b1011 $"
b0 '
b0 J
b0 W
b0 [
b1011 @
b1011 U
b0 z
b0 #
b0 K
b111 x
b111 !
b111 X
b111101100000001 ("
b111101100000001 $
b111101100000001 w
b1011 &"
b1011 8
b1011 '"
1"
#32
0"
#33
b0 D
b0 4
b0 V
b0 y
b0 %
b0 B
0!"
0=
b11011101 |
b11011101 9
b11011101 %"
b0 $"
b0 @
b0 U
b1100 x
b1100 !
b1100 X
b1100101111011101 ("
b1100101111011101 $
b1100101111011101 w
b1100 &"
b1100 8
b1100 '"
1"
#34
0"
#35
b1 G
b1 7
b1 H
b1 Y
b1 5
b1 E
b1 \
b1 D
b1 4
b1 V
b1 y
b1 %
b1 B
1""
1>
1!"
1=
1~
1;
b0 |
b0 9
b0 %"
b1010 z
b1010 #
b1010 K
b1010 x
b1010 !
b1010 X
b1010101000000001 ("
b1010101000000001 $
b1010101000000001 w
b1101 &"
b1101 8
b1101 '"
1"
#36
0"
#37
1Z
1A
b0 D
b0 4
b0 V
b0 G
b0 7
b0 H
b0 y
b0 %
b0 B
0""
0>
0~
0;
b1110 $"
b1110 @
b1110 U
b0 z
b0 #
b0 K
b111 x
b111 !
b111 X
b111111000000000 ("
b111111000000000 $
b111111000000000 w
b1 N
b1110 &"
b1110 8
b1110 '"
1"
#38
0"
#39
0!"
0=
b10010 |
b10010 9
b10010 %"
b0 $"
b0 @
b0 U
b1101 x
b1101 !
b1101 X
b1101111000010010 ("
b1101111000010010 $
b1101111000010010 w
b1111 &"
b1111 8
b1111 '"
1"
#40
0"
#41
b1 G
b1 7
b1 H
b1 D
b1 4
b1 V
0Z
0A
b1 Y
b1 5
b1 E
b1 \
b1 y
b1 %
b1 B
1""
1>
1!"
1=
1~
1;
b0 |
b0 9
b0 %"
b1110 z
b1110 #
b1110 K
b1010 x
b1010 !
b1010 X
b1010111000000001 ("
b1010111000000001 $
b1010111000000001 w
b10000 &"
b10000 8
b10000 '"
1"
#42
0"
#43
b0 G
b0 7
b0 H
b0 D
b0 4
b0 V
b0 y
b0 %
b0 B
0""
0>
0!"
0=
0~
0;
1}
1:
b1000001 |
b1000001 9
b1000001 %"
b0 z
b0 #
b0 K
b1011 x
b1011 !
b1011 X
b1011111001000001 ("
b1011111001000001 $
b1011111001000001 w
b10001 &"
b10001 8
b10001 '"
1"
#44
0"
#45
b10111 G
b10111 7
b10111 H
b10111 D
b10111 4
b10111 V
b10111 Y
b10111 5
b10111 E
b10111 \
1""
1>
1~
1;
0}
0:
b0 |
b0 9
b0 %"
b1 #"
b10111 &
b10111 C
b10111 I
b1 ?
b1 T
b1 $"
b10111 '
b10111 J
b10111 W
b10111 [
b1 @
b1 U
b1000 z
b1000 #
b1000 K
b0 x
b0 !
b0 X
b100000010001 ("
b100000010001 $
b100000010001 w
b1000001 &"
b1000001 8
b1000001 '"
1"
#46
0"
#47
b10011 G
b10011 7
b10011 H
b0 D
b0 4
b0 V
b10011 Y
b10011 5
b10011 E
b10011 \
1!"
1=
b0 #"
b0 &
b0 C
b0 I
b0 ?
b0 T
b101 $"
b10000 '
b10000 J
b10000 W
b10000 [
b101 @
b101 U
b1 z
b1 #
b1 K
b1110 x
b1110 !
b1110 X
b1110000101010000 ("
b1110000101010000 $
b1110000101010000 w
b1000010 &"
b1000010 8
b1000010 '"
b10111 R
1"
#48
0"
#49
b11110 G
b11110 7
b11110 H
b11110 Y
b11110 5
b11110 E
b11110 \
b111 $"
b11110 '
b11110 J
b11110 W
b11110 [
b111 @
b111 U
b101 z
b101 #
b101 K
b1110010101110000 $
b1110010101110000 w
b1110010101110000 ("
b10011 M
b1000011 &"
b1000011 8
b1000011 '"
1"
#50
0"
#51
b1100 G
b1100 7
b1100 H
b1100 Y
b1100 5
b1100 E
b1100 \
b11 $"
b1111 '
b1111 J
b1111 W
b1111 [
b11 @
b11 U
b111 z
b111 #
b111 K
b1110011100110000 $
b1110011100110000 w
b1110011100110000 ("
b1000100 &"
b1000100 8
b1000100 '"
b11110 P
1"
#52
0"
#53
b10100 G
b10100 7
b10100 H
b10100 Y
b10100 5
b10100 E
b10100 \
b1000 $"
b10111 '
b10111 J
b10111 W
b10111 [
b1000 @
b1000 U
b11 z
b11 #
b11 K
b1110001110000000 $
b1110001110000000 w
b1110001110000000 ("
b1100 Q
b1000101 &"
b1000101 8
b1000101 '"
1"
#54
0"
#55
b0 G
b0 7
b0 H
0""
0>
0!"
0=
0~
0;
1}
1:
b1111001 |
b1111001 9
b1111001 %"
b0 $"
b0 '
b0 J
b0 W
b0 [
b0 @
b0 U
b0 z
b0 #
b0 K
b1011 x
b1011 !
b1011 X
b1011001101111001 ("
b1011001101111001 $
b1011001101111001 w
b1000110 &"
b1000110 8
b1000110 '"
b10100 O
1"
#56
0"
#57
b1 D
b1 4
b1 V
b1 Y
b1 5
b1 E
b1 \
1{
13
0}
0:
b0 |
b0 9
b0 %"
b1110 #"
b1 &
b1 C
b1 I
b1110 ?
b1110 T
b1101 $"
b10100 '
b10100 J
b10100 W
b10100 [
b1101 @
b1101 U
b1001 x
b1001 !
b1001 X
b1001001111011110 ("
b1001001111011110 $
b1001001111011110 w
b1111001 &"
b1111001 8
b1111001 '"
1"
#58
0"
#59
b1010 #"
b1010 ?
b1010 T
b1001 $"
b1 '
b1 J
b1 W
b1 [
b1001 @
b1001 U
b1001001110011010 $
b1001001110011010 w
b1001001110011010 ("
b0 G
b0 7
b0 H
b1111010 &"
b1111010 8
b1111010 '"
b0 6
b0 F
b0 ]
b0 v
b1 (
b1 c
1"
#60
0"
#61
1Z
1A
b0 D
b0 4
b0 V
0{
03
1!"
1=
b0 #"
b0 &
b0 C
b0 I
b0 ?
b0 T
b0 $"
b0 '
b0 J
b0 W
b0 [
b0 @
b0 U
b111 x
b111 !
b111 X
b0 G
b0 7
b0 H
b111000000000000 ("
b111000000000000 $
b111000000000000 w
b1 _
b0 6
b0 F
b0 ]
b0 v
b1111011 &"
b1111011 8
b1111011 '"
1"
#62
0"
#63
0!"
0=
b10001100 |
b10001100 9
b10001100 %"
b1101 x
b1101 !
b1101 X
b1101000010001100 ("
b1101000010001100 $
b1101000010001100 w
b1111100 &"
b1111100 8
b1111100 '"
1"
#64
0"
#65
b100 D
b100 4
b100 V
0Z
0A
b100 y
b100 %
b100 B
1!"
1=
b0 |
b0 9
b0 %"
b1 $"
b10011 '
b10011 J
b10011 W
b10011 [
b1 @
b1 U
b111 x
b111 !
b111 X
b111000100000100 ("
b111000100000100 $
b111000100000100 w
b1111101 &"
b1111101 8
b1111101 '"
1"
#66
0"
#67
b0 D
b0 4
b0 V
b0 y
b0 %
b0 B
0!"
0=
1}
1:
b10001100 |
b10001100 9
b10001100 %"
b0 $"
b0 '
b0 J
b0 W
b0 [
b0 @
b0 U
b1101 x
b1101 !
b1101 X
b1101000110001100 ("
b1101000110001100 $
b1101000110001100 w
b1111110 &"
b1111110 8
b1111110 '"
1"
#68
0"
#69
b11 D
b11 4
b11 V
b1 G
b1 7
b1 H
b11 y
b11 %
b11 B
1!"
1=
0}
0:
b0 |
b0 9
b0 %"
b1001 $"
b1 6
b1 F
b1 ]
b1 v
b1 '
b1 J
b1 W
b1 [
b1001 @
b1001 U
b111 x
b111 !
b111 X
b111100100000011 ("
b111100100000011 $
b111100100000011 w
b10001100 &"
b10001100 8
b10001100 '"
1"
#70
0"
#71
b0 D
b0 4
b0 V
b0 G
b0 7
b0 H
b0 y
b0 %
b0 B
0!"
0=
b10010010 |
b10010010 9
b10010010 %"
b0 $"
b0 6
b0 F
b0 ]
b0 v
b0 '
b0 J
b0 W
b0 [
b0 @
b0 U
b1100 x
b1100 !
b1100 X
b1100100110010010 ("
b1100100110010010 $
b1100100110010010 w
b10001101 &"
b10001101 8
b10001101 '"
1"
#72
0"
#73
b10 Y
b10 5
b10 E
b10 \
b1 D
b1 4
b1 V
b10 G
b10 7
b10 H
1""
1>
1~
1;
b0 |
b0 9
b0 %"
b1001 #"
b1 &
b1 C
b1 I
b1001 ?
b1001 T
b1001 $"
b1 6
b1 F
b1 ]
b1 v
b1 '
b1 J
b1 W
b1 [
b1001 @
b1001 U
b1001 z
b1001 #
b1001 K
b100 x
b100 !
b100 X
b100100110011001 ("
b100100110011001 $
b100100110011001 w
b10001110 &"
b10001110 8
b10001110 '"
1"
#74
0"
#75
b1 G
b1 7
b1 H
b1100 z
b1100 #
b1100 K
b101 x
b101 !
b101 X
b1 Y
b1 5
b1 E
b1 \
b101110010011001 ("
b101110010011001 $
b101110010011001 w
b10 D
b10 4
b10 V
b10001111 &"
b10001111 8
b10001111 '"
b10 &
b10 C
b10 I
b0 6
b0 F
b0 ]
b0 v
b10 '
b10 J
b10 W
b10 [
b10 S
1"
#76
0"
#77
b10101 G
b10101 7
b10101 H
b10100 D
b10100 4
b10100 V
b10101 Y
b10101 5
b10101 E
b10101 \
b1101 #"
b10100 &
b10100 C
b10100 I
b1101 ?
b1101 T
b1101 z
b1101 #
b1101 K
b100 x
b100 !
b100 X
b100110110011101 ("
b100110110011101 $
b100110110011101 w
b10010000 &"
b10010000 8
b10010000 '"
1"
#78
0"
#79
b0 G
b0 7
b0 H
0""
0>
0~
0;
1}
1:
b1000 |
b1000 9
b1000 %"
b0 #"
b0 ?
b0 T
b0 $"
b0 '
b0 J
b0 W
b0 [
b0 @
b0 U
b0 z
b0 #
b0 K
b1011 x
b1011 !
b1011 X
b10110 Y
b10110 5
b10110 E
b10110 \
b1011110100001000 ("
b1011110100001000 $
b1011110100001000 w
b0 D
b0 4
b0 V
b10010001 &"
b10010001 8
b10010001 '"
b0 &
b0 C
b0 I
1"
#80
0"
#81
b1 G
b1 7
b1 H
b0 Y
b0 5
b0 E
b0 \
1~
1;
0}
0:
b0 |
b0 9
b0 %"
b1100 $"
b1 6
b1 F
b1 ]
b1 v
b1 '
b1 J
b1 W
b1 [
b1100 @
b1100 U
b1011 z
b1011 #
b1011 K
b1000 x
b1000 !
b1000 X
b1000101111001000 ("
b1000101111001000 $
b1000101111001000 w
b1000 &"
b1000 8
b1000 '"
1"
#82
0"
#83
b0 G
b0 7
b0 H
b1101 $"
b0 6
b0 F
b0 ]
b0 v
b10101 '
b10101 J
b10101 W
b10101 [
b1101 @
b1101 U
b1110 z
b1110 #
b1110 K
b1000111011011000 $
b1000111011011000 w
b1000111011011000 ("
b1001 &"
b1001 8
b1001 '"
1"
#84
0"
#85
b1001 $"
b10 '
b10 J
b10 W
b10 [
b1001 @
b1001 U
b1010 z
b1010 #
b1010 K
b1000101010011000 $
b1000101010011000 w
b1000101010011000 ("
b1010 &"
b1010 8
b1010 '"
1"
#86
0"
#87
1Z
1A
b1 D
b1 4
b1 V
b1 G
b1 7
b1 H
b1 y
b1 %
b1 B
1!"
1=
0~
0;
b1011 $"
b1 6
b1 F
b1 ]
b1 v
b1 '
b1 J
b1 W
b1 [
b1011 @
b1011 U
b0 z
b0 #
b0 K
b111 x
b111 !
b111 X
b111101100000001 ("
b111101100000001 $
b111101100000001 w
b1011 &"
b1011 8
b1011 '"
b0 N
1"
#88
0"
#89
b0 D
b0 4
b0 V
b0 G
b0 7
b0 H
b0 y
b0 %
b0 B
0!"
0=
1}
1:
b11011101 |
b11011101 9
b11011101 %"
b0 $"
b0 6
b0 F
b0 ]
b0 v
b0 '
b0 J
b0 W
b0 [
b0 @
b0 U
b1100 x
b1100 !
b1100 X
b1100101111011101 ("
b1100101111011101 $
b1100101111011101 w
b1100 &"
b1100 8
b1100 '"
1"
#90
0"
#91
1!"
1=
0}
0:
b0 |
b0 9
b0 %"
b1110 $"
b1110 @
b1110 U
b111 x
b111 !
b111 X
b111111000000000 ("
b111111000000000 $
b111111000000000 w
b11011101 &"
b11011101 8
b11011101 '"
1"
#92
0"
#93
0!"
0=
b11010 |
b11010 9
b11010 %"
b0 $"
b0 @
b0 U
b1101 x
b1101 !
b1101 X
b1101111000011010 ("
b1101111000011010 $
b1101111000011010 w
b11011110 &"
b11011110 8
b11011110 '"
1"
#94
0"
#95
b11 G
b11 7
b11 H
b11 Y
b11 5
b11 E
b11 \
b11 D
b11 4
b11 V
0Z
0A
b11 y
b11 %
b11 B
1""
1>
1!"
1=
1~
1;
b0 |
b0 9
b0 %"
b1110 z
b1110 #
b1110 K
b1010 x
b1010 !
b1010 X
b1010111000000011 ("
b1010111000000011 $
b1010111000000011 w
b11011111 &"
b11011111 8
b11011111 '"
1"
#96
0"
#97
b0 G
b0 7
b0 H
b0 D
b0 4
b0 V
b0 y
b0 %
b0 B
0""
0>
0!"
0=
0~
0;
1}
1:
b11010 |
b11010 9
b11010 %"
b0 z
b0 #
b0 K
b1011 x
b1011 !
b1011 X
b1011111000011010 ("
b1011111000011010 $
b1011111000011010 w
b11100000 &"
b11100000 8
b11100000 '"
1"
#98
0"
#99
b10 D
b10 4
b10 V
b1 G
b1 7
b1 H
b10 y
b10 %
b10 B
1!"
1=
0}
0:
b0 |
b0 9
b0 %"
b1011 $"
b1 6
b1 F
b1 ]
b1 v
b1 '
b1 J
b1 W
b1 [
b1011 @
b1011 U
b111 x
b111 !
b111 X
b111101100000010 ("
b111101100000010 $
b111101100000010 w
b11010 &"
b11010 8
b11010 '"
1"
#100
0"
#101
b0 D
b0 4
b0 V
b0 G
b0 7
b0 H
b0 y
b0 %
b0 B
0!"
0=
b11100001 |
b11100001 9
b11100001 %"
b0 $"
b0 6
b0 F
b0 ]
b0 v
b0 '
b0 J
b0 W
b0 [
b0 @
b0 U
b1100 x
b1100 !
b1100 X
b1100101111100001 ("
b1100101111100001 $
b1100101111100001 w
b11011 &"
b11011 8
b11011 '"
1"
#102
0"
#103
b10 G
b10 7
b10 H
b10 D
b10 4
b10 V
b10 Y
b10 5
b10 E
b10 \
b10 y
b10 %
b10 B
1""
1>
1!"
1=
1~
1;
b0 |
b0 9
b0 %"
b1010 z
b1010 #
b1010 K
b1010 x
b1010 !
b1010 X
b1010101000000010 ("
b1010101000000010 $
b1010101000000010 w
b11100 &"
b11100 8
b11100 '"
1"
#104
0"
#105
1Z
1A
b11 D
b11 4
b11 V
b0 G
b0 7
b0 H
b11 y
b11 %
b11 B
0""
0>
0~
0;
b1110 $"
b11 '
b11 J
b11 W
b11 [
b1110 @
b1110 U
b0 z
b0 #
b0 K
b111 x
b111 !
b111 X
b111111000000011 ("
b111111000000011 $
b111111000000011 w
b10 N
b11101 &"
b11101 8
b11101 '"
1"
#106
0"
#107
b0 D
b0 4
b0 V
b0 y
b0 %
b0 B
0!"
0=
b100001 |
b100001 9
b100001 %"
b0 $"
b0 '
b0 J
b0 W
b0 [
b0 @
b0 U
b1101 x
b1101 !
b1101 X
b1101111000100001 ("
b1101111000100001 $
b1101111000100001 w
b11110 &"
b11110 8
b11110 '"
1"
#108
0"
#109
b100 G
b100 7
b100 H
b100 D
b100 4
b100 V
0Z
0A
b100 Y
b100 5
b100 E
b100 \
b100 y
b100 %
b100 B
1""
1>
1!"
1=
1~
1;
b0 |
b0 9
b0 %"
b1110 z
b1110 #
b1110 K
b1010 x
b1010 !
b1010 X
b1010111000000100 ("
b1010111000000100 $
b1010111000000100 w
b11111 &"
b11111 8
b11111 '"
1"
#110
0"
#111
b0 G
b0 7
b0 H
b0 D
b0 4
b0 V
b0 y
b0 %
b0 B
0""
0>
0!"
0=
0~
0;
1}
1:
b1010100 |
b1010100 9
b1010100 %"
b0 z
b0 #
b0 K
b1011 x
b1011 !
b1011 X
b1011111001010100 ("
b1011111001010100 $
b1011111001010100 w
b100000 &"
b100000 8
b100000 '"
1"
#112
0"
#113
b111 G
b111 7
b111 H
b111 D
b111 4
b111 V
b111 Y
b111 5
b111 E
b111 \
1""
1>
1~
1;
0}
0:
b0 |
b0 9
b0 %"
b10 #"
b111 &
b111 C
b111 I
b10 ?
b10 T
b10 $"
b111 '
b111 J
b111 W
b111 [
b10 @
b10 U
b1000 z
b1000 #
b1000 K
b0 x
b0 !
b0 X
b100000100010 ("
b100000100010 $
b100000100010 w
b1010100 &"
b1010100 8
b1010100 '"
1"
#114
0"
#115
b10110 G
b10110 7
b10110 H
b1 D
b1 4
b1 V
b10110 Y
b10110 5
b10110 E
b10110 \
b1 y
b1 %
b1 B
1!"
1=
b0 #"
b0 &
b0 C
b0 I
b0 ?
b0 T
b11 $"
b1 6
b1 F
b1 ]
b1 v
b10100 '
b10100 J
b10100 W
b10100 [
b11 @
b11 U
b10 z
b10 #
b10 K
b1110 x
b1110 !
b1110 X
b1110001000110001 ("
b1110001000110001 $
b1110001000110001 w
b1010101 &"
b1010101 8
b1010101 '"
b111 R
1"
#116
0"
#117
b1110 G
b1110 7
b1110 H
b1110 Y
b1110 5
b1110 E
b1110 \
b111 $"
b0 6
b0 F
b0 ]
b0 v
b1100 '
b1100 J
b1100 W
b1100 [
b111 @
b111 U
b11 z
b11 #
b11 K
b1110001101110001 $
b1110001101110001 w
b1110001101110001 ("
b1010110 &"
b1010110 8
b1010110 '"
1"
#118
0"
#119
b11011 G
b11011 7
b11011 H
b11011 Y
b11011 5
b11011 E
b11011 \
b110 $"
b11011 '
b11011 J
b11011 W
b11011 [
b110 @
b110 U
b111 z
b111 #
b111 K
b1110011101100001 $
b1110011101100001 w
b1110011101100001 ("
b1010111 &"
b1010111 8
b1010111 '"
b1110 O
1"
#120
0"
#121
b111 G
b111 7
b111 H
b111 Y
b111 5
b111 E
b111 \
b1000 $"
b111 '
b111 J
b111 W
b111 [
b1000 @
b1000 U
b110 z
b110 #
b110 K
b1110011010000001 $
b1110011010000001 w
b1110011010000001 ("
b11011 Q
b1011000 &"
b1011000 8
b1011000 '"
1"
#122
0"
#123
b0 G
b0 7
b0 H
b0 D
b0 4
b0 V
b0 y
b0 %
b0 B
0""
0>
0!"
0=
0~
0;
1}
1:
b1111001 |
b1111001 9
b1111001 %"
b0 $"
b0 '
b0 J
b0 W
b0 [
b0 @
b0 U
b0 z
b0 #
b0 K
b1011 x
b1011 !
b1011 X
b1011011001111001 ("
b1011011001111001 $
b1011011001111001 w
b1011001 &"
b1011001 8
b1011001 '"
1"
#124
0"
#125
b100 D
b100 4
b100 V
b100 Y
b100 5
b100 E
b100 \
1{
13
0}
0:
b0 |
b0 9
b0 %"
b1110 #"
b100 &
b100 C
b100 I
b1110 ?
b1110 T
b1101 $"
b10101 '
b10101 J
b10101 W
b10101 [
b1101 @
b1101 U
b1001 x
b1001 !
b1001 X
b1001011011011110 ("
b1001011011011110 $
b1001011011011110 w
b1111001 &"
b1111001 8
b1111001 '"
1"
#126
0"
#127
b10 Y
b10 5
b10 E
b10 \
b10 D
b10 4
b10 V
b1010 #"
b10 &
b10 C
b10 I
b1010 ?
b1010 T
b1001 $"
b10 '
b10 J
b10 W
b10 [
b1001 @
b1001 U
b1001011010011010 $
b1001011010011010 w
b1001011010011010 ("
b0 G
b0 7
b0 H
b1111010 &"
b1111010 8
b1111010 '"
b0 6
b0 F
b0 ]
b0 v
b100 )
b100 d
1"
#128
0"
#129
1Z
1A
b0 D
b0 4
b0 V
0{
03
1!"
1=
b0 #"
b0 &
b0 C
b0 I
b0 ?
b0 T
b0 $"
b0 '
b0 J
b0 W
b0 [
b0 @
b0 U
b111 x
b111 !
b111 X
b0 G
b0 7
b0 H
b111000000000000 ("
b111000000000000 $
b111000000000000 w
b10 b
b0 6
b0 F
b0 ]
b0 v
b1111011 &"
b1111011 8
b1111011 '"
1"
#130
0"
#131
0!"
0=
b10001100 |
b10001100 9
b10001100 %"
b1101 x
b1101 !
b1101 X
b1101000010001100 ("
b1101000010001100 $
b1101000010001100 w
b1111100 &"
b1111100 8
b1111100 '"
1"
#132
0"
#133
b100 D
b100 4
b100 V
0Z
0A
b100 y
b100 %
b100 B
1!"
1=
b0 |
b0 9
b0 %"
b1 $"
b10011 '
b10011 J
b10011 W
b10011 [
b1 @
b1 U
b111 x
b111 !
b111 X
b111000100000100 ("
b111000100000100 $
b111000100000100 w
b1111101 &"
b1111101 8
b1111101 '"
1"
#134
0"
